<?xml version="1.0" encoding="UTF-8"?>
<svg width="24px" height="24px" viewBox="0 0 24 24" version="1.1" xmlns="http://www.w3.org/2000/svg" xmlns:xlink="http://www.w3.org/1999/xlink">
    <title>切换版本</title>
    <g id="web界面" stroke="none" stroke-width="1" fill="none" fill-rule="evenodd">
        <g id="项目总览-扁平" transform="translate(-1757.000000, -19.000000)" fill-rule="nonzero">
            <g id="切换版本" transform="translate(1757.000000, 19.000000)">
                <rect id="矩形" fill="#000000" opacity="0" x="0" y="0" width="24" height="24"></rect>
                <path d="M10.59375,1.84921875 L3.3890625,1.84921875 C2.76796875,1.84921875 2.2640625,2.353125 2.2640625,2.97421875 L2.2640625,10.5375 C2.2640625,11.1585938 2.76796875,11.6625 3.3890625,11.6625 L10.59375,11.6625 C11.2148437,11.6625 11.71875,11.1585938 11.71875,10.5375 L11.71875,2.97421875 C11.71875,2.353125 11.2125,1.84921875 10.59375,1.84921875 Z M10.03125,9.975 L3.9515625,9.975 L3.9515625,3.53671875 L10.03125,3.53671875 L10.03125,9.975 Z M20.5945312,12.31875 L13.3898437,12.31875 C12.76875,12.31875 12.2648437,12.8226562 12.2648437,13.44375 L12.2648437,21.0070313 C12.2648437,21.628125 12.76875,22.1320313 13.3898437,22.1320313 L20.5945312,22.1320313 C21.215625,22.1320313 21.7195312,21.628125 21.7195312,21.0070313 L21.7195312,13.44375 C21.7195312,12.8226562 21.215625,12.31875 20.5945312,12.31875 L20.5945312,12.31875 Z M20.0320312,20.4445312 L13.9523437,20.4445312 L13.9523437,14.00625 L20.0320312,14.00625 L20.0320312,20.4445312 L20.0320312,20.4445312 Z M9.78984375,20.4445313 C9.77578125,20.4445313 8.30390625,20.4351563 6.83203125,19.6851563 C5.29453125,18.9023438 4.36640625,17.615625 4.06171875,15.8507812 L4.60078125,15.8507812 C4.77890625,15.8507812 4.89140625,15.6585937 4.80703125,15.5039063 L3.37734375,12.9140625 C3.28828125,12.7523437 3.05625,12.7523437 2.9671875,12.9140625 L1.5375,15.5039063 C1.45078125,15.6609375 1.56328125,15.8507812 1.74375,15.8507812 L2.35546875,15.8507812 C2.7703125,18.871875 4.546875,20.4140625 6.065625,21.1875 C7.89609375,22.1203125 9.71484375,22.1320313 9.78984375,22.1320313 C10.25625,22.1320313 10.6335938,21.7546875 10.6335938,21.2882813 C10.6335938,20.821875 10.25625,20.4445313 9.78984375,20.4445313 Z M22.25625,8.13515625 L21.6445313,8.13515625 C21.2273438,5.11171875 19.453125,3.571875 17.9320313,2.7984375 C16.1015625,1.865625 14.2828125,1.85390625 14.2078125,1.85390625 C13.7414063,1.85390625 13.3640625,2.23125 13.3640625,2.69765625 C13.3640625,3.1640625 13.7414063,3.54140625 14.2078125,3.54140625 C14.221875,3.54140625 15.69375,3.55078125 17.165625,4.30078125 C18.703125,5.08359375 19.63125,6.3703125 19.9359375,8.13515625 L19.396875,8.13515625 C19.21875,8.13515625 19.10625,8.32734375 19.190625,8.48203125 L20.6203125,11.071875 C20.709375,11.2335938 20.9414063,11.2335938 21.0304688,11.071875 L22.4601563,8.48203125 C22.5492188,8.32734375 22.4367188,8.13515625 22.25625,8.13515625 L22.25625,8.13515625 Z" id="形状" fill="#FFFFFF"></path>
            </g>
        </g>
    </g>
</svg>