<?xml version="1.0" encoding="UTF-8"?>
<svg width="14px" height="14px" viewBox="0 0 14 14" version="1.1" xmlns="http://www.w3.org/2000/svg" xmlns:xlink="http://www.w3.org/1999/xlink">
    <title>工期-3</title>
    <g id="web界面" stroke="none" stroke-width="1" fill="none" fill-rule="evenodd">
        <g id="项目总览-扁平" transform="translate(-768.000000, -163.000000)" fill-rule="nonzero">
            <g id="编组-9" transform="translate(248.000000, 100.000000)">
                <g id="编组-4" transform="translate(502.000000, 54.000000)">
                    <g id="工期-3" transform="translate(18.000000, 9.000000)">
                        <rect id="矩形" fill="#000000" opacity="0" x="0" y="0" width="14" height="14"></rect>
                        <path d="M3.57246094,3.9046875 C3.34140625,3.9046875 3.15410156,3.71738281 3.15410156,3.48632813 L3.15410156,1.25371094 C3.15410156,1.02265625 3.34140625,0.835351563 3.57246094,0.835351563 C3.80351563,0.835351563 3.9921875,1.02265625 3.9921875,1.25371094 L3.9921875,3.48632813 C3.9921875,3.71738281 3.80351563,3.9046875 3.57246094,3.9046875 Z M9.1546875,3.9046875 C8.92363281,3.9046875 8.73632812,3.71738281 8.73632812,3.48632813 L8.73632812,1.25371094 C8.73632812,1.02265625 8.92363281,0.835351563 9.1546875,0.835351563 C9.38574219,0.835351563 9.57304687,1.02265625 9.57304687,1.25371094 L9.57304687,3.48632813 C9.57304687,3.71738281 9.38574219,3.9046875 9.1546875,3.9046875 Z M7.5359375,8.80195313 L3.18828125,8.80195313 C2.95722656,8.80195313 2.76992188,8.61464844 2.76992188,8.38359375 C2.76992188,8.15253906 2.95722656,7.96523437 3.18828125,7.96523437 L7.5359375,7.96523437 C7.76699219,7.96523437 7.95430426,8.15253906 7.95430426,8.38359375 C7.95566406,8.61464844 7.76699219,8.80195313 7.5359375,8.80195313 Z M9.60722656,6.01152344 L3.18964844,6.01152344 C2.95859375,6.01152344 2.77128906,5.82421875 2.77128906,5.59316406 C2.77128906,5.36210938 2.95859375,5.17480469 3.18964844,5.17480469 L9.60722656,5.17480469 C9.83828125,5.17480469 10.0255859,5.36210937 10.0255859,5.59316406 C10.0255859,5.82421875 9.83828125,6.01152344 9.60722656,6.01152344 Z M10.5492187,13.1277344 C9.16425781,13.1277344 8.03769531,12.0011719 8.03769531,10.6162109 C8.03769531,9.23125 9.16425781,8.1046875 10.5492188,8.1046875 C11.9341797,8.1046875 13.0607422,9.23125 13.0607422,10.6162109 C13.0607422,12.0011719 11.9341797,13.1277344 10.5492188,13.1277344 L10.5492187,13.1277344 Z M10.5492187,8.94140625 C9.62636719,8.94140625 8.87441406,9.69199219 8.87441406,10.6162109 C8.87441406,11.5404297 9.62636719,12.2910156 10.5492187,12.2910156 C11.4720703,12.2910156 12.2240234,11.5390625 12.2240234,10.6162109 C12.2240234,9.69335938 11.4720703,8.94140625 10.5492187,8.94140625 Z" id="形状" fill="#FFFFFF"></path>
                        <path d="M7.17910156,11.1740234 L1.62558594,11.1740234 C1.62148438,11.1740234 1.61875,11.1712891 1.61875,11.1671875 L1.61875,2.80957031 C1.61875,2.80546875 1.62148438,2.80273438 1.62558594,2.80273438 L11.1001953,2.80273438 C11.1042969,2.80273438 11.1070313,2.80546875 11.1070313,2.80957031 L11.1070313,7.25703125 C11.1070313,7.43339844 11.2205078,7.58789063 11.3859375,7.64667969 C11.6580078,7.74375 11.94375,7.54140625 11.94375,7.25292969 L11.94375,2.63457031 C11.94375,2.26542969 11.6388672,1.96601563 11.265625,1.96601563 L1.46152344,1.96601563 C1.08691406,1.96601563 0.78203125,2.26542969 0.78203125,2.63457031 L0.78203125,11.3435547 C0.78203125,11.7126953 1.08691406,12.0121094 1.46152344,12.0121094 L7.18867188,12.0121094 C7.47167969,12.0121094 7.67265625,11.7332031 7.57695313,11.4652344 C7.57558594,11.4625 7.57421875,11.4597656 7.57421875,11.4570312 C7.5140625,11.2888672 7.35683594,11.1740234 7.17910156,11.1740234 Z" id="路径" fill="#FFFFFF"></path>
                        <path d="M11.5964844,10.2320313 L10.9689453,10.2320313 L10.9689453,9.60449219 C10.9689453,9.3734375 10.7816406,9.18613281 10.5505859,9.18613281 C10.3195313,9.18613281 10.1322266,9.3734375 10.1322266,9.60449219 L10.1322266,10.5806641 C10.1322266,10.7146484 10.1951172,10.8308594 10.2935547,10.9087891 C10.3701172,11.0058594 10.4876953,11.0701172 10.6216797,11.0701172 L11.5978516,11.0701172 C11.8289062,11.0701172 12.0162109,10.8828125 12.0162109,10.6517578 C12.0162109,10.4207031 11.8275391,10.2320312 11.5964844,10.2320312" id="路径" fill="#FFFFFF" opacity="0.6"></path>
                    </g>
                </g>
            </g>
        </g>
    </g>
</svg>