<svg width="24" height="24" viewBox="0 0 24 24" fill="none" xmlns="http://www.w3.org/2000/svg">
<g id="&#233;&#161;&#185;&#231;&#155;&#174;&#230;&#128;&#187;&#232;&#167;&#136;">
<g id="&#233;&#161;&#185;&#231;&#155;&#174;&#230;&#128;&#187;&#232;&#167;&#136;_2">
<path id="&#231;&#159;&#169;&#229;&#189;&#162; copy 2" fill-rule="evenodd" clip-rule="evenodd" d="M3 3C3 2.44772 3.44772 2 4 2H20C20.5523 2 21 2.44772 21 3V21.5714C21 22.1237 20.5523 22.5714 20 22.5714H4C3.44772 22.5714 3 22.1237 3 21.5714V3Z" fill="url(#paint0_linear_11_4784)"/>
<path id="&#232;&#183;&#175;&#229;&#190;&#132; 79 copy 2" d="M7.5 14.5619H15.8571" stroke="white" stroke-linecap="round" stroke-linejoin="round"/>
<path id="&#232;&#183;&#175;&#229;&#190;&#132; 79 copy 3" d="M6.21429 18.419H17.7857" stroke="white" stroke-linecap="round" stroke-linejoin="round"/>
<path id="&#232;&#183;&#175;&#229;&#190;&#132; 80 copy" fill-rule="evenodd" clip-rule="evenodd" d="M8.78571 2V8.25198C8.78571 9.07345 9.72131 9.54452 10.3812 9.05532L11.2984 8.37543C11.6521 8.11321 12.1357 8.11321 12.4894 8.37543L13.4066 9.05532C14.0665 9.54452 15.0021 9.07345 15.0021 8.25198V2H8.78571Z" fill="white" stroke="#0081CC"/>
</g>
</g>
<defs>
<linearGradient id="paint0_linear_11_4784" x1="3" y1="2" x2="3" y2="22.5714" gradientUnits="userSpaceOnUse">
<stop stop-color="#00A0E9"/>
<stop offset="1" stop-color="#0081CC"/>
</linearGradient>
</defs>
</svg>
