<svg width="24" height="24" viewBox="0 0 24 24" fill="none" xmlns="http://www.w3.org/2000/svg">
<g id="&#231;&#187;&#191;&#232;&#137;&#178;&#230;&#150;&#189;&#229;&#183;&#165;">
<g id="Frame">
<path id="Vector" d="M18.6837 3C19.8916 3 20.8863 3.93079 20.9915 5.11737L21 5.31632V17.7363C21 18.3162 20.7825 18.875 20.3905 19.3023C19.9984 19.7296 19.4604 19.9943 18.8826 20.0441L17.7363 20.0526H5.31632C4.73643 20.0526 4.17762 19.8351 3.75033 19.4431C3.32304 19.0511 3.05833 18.513 3.00853 17.9353L3 17.7363V5.31632C2.99999 4.73643 3.2175 4.17762 3.60953 3.75033C4.00157 3.32304 4.53962 3.05833 5.11737 3.00853L5.31632 3H18.6837ZM13.8199 12.9474C13.0554 12.9474 12.3875 13.3666 12.0208 13.989L11.9285 14.1638H6.26842C6.02795 14.1664 5.79832 14.2642 5.62974 14.4357C5.46117 14.6072 5.36738 14.8385 5.3689 15.0789C5.3689 15.5379 5.70284 15.9188 6.13626 15.9842L6.26842 15.9941H11.9242C12.2638 16.7146 12.9815 17.2105 13.8156 17.2105C14.583 17.2105 15.2481 16.7913 15.6161 16.1689L15.7085 15.9941H17.7306C17.8502 15.9941 17.9685 15.9704 18.0787 15.9242C18.189 15.878 18.2889 15.8104 18.3728 15.7252C18.4566 15.64 18.5227 15.539 18.5671 15.4281C18.6116 15.3171 18.6335 15.1985 18.6316 15.0789C18.6324 14.8614 18.5555 14.6507 18.4148 14.4848C18.2742 14.3189 18.0789 14.2086 17.8642 14.1737L17.7306 14.1638H15.7127C15.5459 13.8017 15.2791 13.4949 14.9438 13.2794C14.6085 13.0639 14.2185 12.9487 13.8199 12.9474ZM9.90632 5.84211C9.14179 5.84211 8.4739 6.26132 8.10726 6.88374L8.01489 7.05853H6.26842C6.02795 7.06115 5.79832 7.15891 5.62974 7.33041C5.46117 7.50192 5.36738 7.73321 5.3689 7.97368C5.3689 8.43268 5.70284 8.81353 6.13626 8.87889L6.26842 8.88884H8.00921C8.34884 9.60932 9.06647 10.1053 9.90063 10.1053C10.668 10.1053 11.3331 9.68605 11.7011 9.06363L11.7935 8.88884H17.7306C18.2308 8.88884 18.6358 8.47674 18.6316 7.97368C18.6324 7.75616 18.5555 7.54548 18.4148 7.37955C18.2742 7.21362 18.0789 7.10332 17.8642 7.06847L17.7306 7.05853H11.7977C11.6309 6.69649 11.3641 6.38965 11.0288 6.17414C10.6935 5.95864 10.3035 5.84344 9.9049 5.84211H9.90632Z" fill="url(#paint0_linear_53_17534)"/>
</g>
</g>
<defs>
<linearGradient id="paint0_linear_53_17534" x1="3.13299" y1="3" x2="3.13299" y2="19.7866" gradientUnits="userSpaceOnUse">
<stop stop-color="#7AD5FF"/>
<stop offset="1" stop-color="#009FE8"/>
</linearGradient>
</defs>
</svg>
