<svg width="24" height="24" viewBox="0 0 24 24" fill="none" xmlns="http://www.w3.org/2000/svg">
<g id="&#233;&#161;&#185;&#231;&#155;&#174;&#230;&#128;&#187;&#232;&#167;&#136;">
<g id="Frame">
<path id="Vector" d="M20.0688 19.7142H3.93114C3.65364 19.7142 3.42864 19.9392 3.42864 20.2167V20.9259C3.42864 21.2034 3.65364 21.4284 3.93114 21.4284H20.0688C20.3463 21.4284 20.5713 21.2034 20.5713 20.9259V20.2167C20.5713 19.9392 20.3463 19.7142 20.0688 19.7142ZM20.1417 2.57129H3.85825C3.14763 2.57129 2.57153 3.14738 2.57153 3.85801V16.7132C2.57153 17.4239 3.14763 18 3.85825 18H20.1417C20.8523 18 21.4284 17.4239 21.4284 16.7132V3.85824C21.4286 3.14738 20.8525 2.57129 20.1417 2.57129ZM7.71419 14.5713C7.71419 15.0447 7.33052 15.4284 6.85708 15.4284C6.38364 15.4284 5.99997 15.0445 5.99997 14.5713V11.1429C5.99997 10.6694 6.38364 10.2857 6.85708 10.2857C7.33052 10.2857 7.71419 10.6694 7.71419 11.1429V14.5713ZM11.1429 14.5713C11.1429 15.0447 10.7592 15.4284 10.2858 15.4284C9.81231 15.4284 9.42864 15.0445 9.42864 14.5713V5.99996C9.42864 5.52652 9.81231 5.14285 10.2858 5.14285C10.7592 5.14285 11.1429 5.52652 11.1429 5.99996V14.5713ZM14.5713 14.5713C14.5713 15.0447 14.1876 15.4284 13.7142 15.4284C13.2408 15.4284 12.8571 15.0445 12.8571 14.5713V12.8571C12.8571 12.3836 13.2408 12 13.7142 12C14.1876 12 14.5713 12.3836 14.5713 12.8571V14.5713ZM18 14.5713C18 15.0447 17.6163 15.4284 17.1429 15.4284C16.6694 15.4284 16.2858 15.0445 16.2858 14.5713V7.71418C16.2858 7.24074 16.6694 6.85707 17.1429 6.85707C17.6163 6.85707 18 7.24074 18 7.71418V14.5713Z" fill="url(#paint0_linear_53_17517)"/>
</g>
</g>
<defs>
<linearGradient id="paint0_linear_53_17517" x1="2.57153" y1="2.57129" x2="2.57153" y2="21.4284" gradientUnits="userSpaceOnUse">
<stop stop-color="#00A0E9"/>
<stop offset="1" stop-color="#0081CC"/>
</linearGradient>
</defs>
</svg>
